{
    "main": {
        "status": "close",
        "open": "2017-09-12 12:23:45",
        "close": "2017-10-14 10:13:12",
        "count": 249,
        "games": 174
    },
    "belly": {
        "status": "close",
        "open": "2017-10-10 12:23:45",
        "close": "2017-10-18 20:13:12",
        "count": 111,
        "games": 222
    },
    "top": {
        "status": "close",
        "open": "2017-10-11 12:23:45",
        "close": "2017-10-19 03:13:12",
        "count": 453,
        "games": 983
    },
    "cashbox": {
        "status": "close",
        "open": "2017-10-17 18:13:45",
        "close": "2017-10-23 06:13:12",
        "count": 943,
        "games": 2983
    },
    "bv": {
        "status": "close",
        "open": "2017-10-19 19:33:45",
        "close": "2017-10-28 07:43:12",
        "count": 4,
        "games": 98
    }
}
