{
    "history": [
        {
            "date": "2017-11-01 01:19:34",
            "channel": "2c",
            "status": "accept"
        },
        {
            "date": "2017-11-05 21:19:34",
            "channel": "5c",
            "status": "accept"
        },
        {
            "date": "2017-11-10 21:19:34",
            "channel": "10c",
            "status": "accept"
        },
        {
            "date": "2017-11-11 11:11:11",
            "channel": "1c",
            "status": "accept"
        },
        {
            "date": "2017-11-11 21:20:00",
            "channel": "1c",
            "status": "accept"
        },
        {
            "date": "2017-11-25 23:19:34",
            "channel": "50c",
            "status": "accept"
        }
    ],
    "count": 878
}
