{
    "history": [
        {
            "date": "2017-11-10 21:19:34",
            "status": "Accepted"
        },
        {
            "date": "2017-11-21 11:19:34",
            "status": "Accepted"
        },
        {
            "date": "2017-11-23 03:19:34",
            "status": "Accepted"
        },
        {
            "date": "2017-11-28 22:23:51",
            "status": "Accepted"
        }
    ],
    "count": 100
}
