{
    "history": [
        {
            "date": "2017-11-10 21:19:34",
            "channel": "Titpo",
            "status": "accept",
            "value": "3$"
        },
        {
            "date": "2017-11-12 11:19:34",
            "channel": "Titpo",
            "status": "accept",
            "value": "2$"
        },
        {
            "date": "2017-11-14 14:19:34",
            "channel": "Titpo",
            "status": "accept",
            "value": "33$"
        },
        {
            "date": "2017-11-15 04:06:34",
            "channel": "Titpo",
            "status": "accept",
            "value": "1$"
        },
        {
            "date": "2017-11-17 22:22:22",
            "channel": "Titpo",
            "status": "accept",
            "value": "6$"
        }
    ],
    "count": 130
}
