{
    "id": 5,
    "next_id": 6,
    "game": {
        "id": 2,
        "name": "Magic Crystals"
    },
    "image": "assets/img/test-game-1.png",
    "params": {
        "details": {
            "time": 123,
            "bet": 123,
            "result": 123,
            "spin": 123,
            "gambles": 123,
            "gamble_value": 123,
            "gamble_out_value": 123
        },
        "last": {
            "tokens_in": 123,
            "coins_in": 123,
            "bills_in": 123,
            "remote_in": 123,
            "card_in": 123,
            "bonus_in": 123,
            "ticket_in": 123
        },
        "winning_rules": {
            "selected_symbol": "Red",
            "winning_symbol": "Black"
        }
    }
}
