{
    "id": 9,
    "prev_id": 4,
    "game": {
        "id": 1,
        "name": "Matt's Lucky 7"
    },
    "image": "assets/img/test-game-9.jpg",
    "params": {
        "details": {
            "time": 999,
            "bet": 999,
            "result": 123,
            "spin": 123,
            "gambles": 999,
            "gamble_value": 123,
            "gamble_out_value": 99
        },
        "last": {
            "tokens_in": 999,
            "coins_in": 123,
            "bills_in": 123,
            "remote_in": 123,
            "card_in": 99,
            "bonus_in": 123,
            "ticket_in": 999
        },
        "winning_rules": {
            "selected_symbol": "Red",
            "winning_symbol": "Black"
        }
    }
}
