{
    "general": {
        "date": "2017/08/03 13:34:55",
        "currency": "AUD",
        "machine_model": "GC model 2",
        "serial_number": "X312/tgfa/2315",
        "display_format": "currency_credit",
        "enable_residual_credit": "no",
        "enable_reserve": "no",
        "enable_handpay_reset": "no",
        "handpay_cr": "no",
        "handpay_win": "1000",
        "celebration_win": "unlimited",
        "credit_limit": "unlimited",
        "cr_limit_win": "cashout_dev"
    },
    "peripherals": {
        "touchscreen": "silicon_devices",
        "bill_validator": "jcm_ivizion",
        "coin_in_validator": "unlimited",
        "credit_limit": "no",
        "printer": "jcm_gen_2",
        "tower_light": "yes"
    },
    "progressive": {
        "total": "4",
        "lp_levels": "3",
        "sap_levels": "2",
        "sap_rtp": "18.1%",
        "group_id": "1",
        "handpay": "1000"
    },
    "sas": {
        "enabled": "yes",
        "cashless_transfer": "AFT",
        "asset_number": "1123",
        "partial_transfer": "yes",
        "bonusing": "yes",
        "print_handpay": "no",
        "exception": "no"
    },
    "xseries": {
        "machine_number": "123456",
        "version_number": "3.2",
        "manufacturer": "GC",
        "firmware": "3456 433 555",
        "credit_value": "1c",
        "levels_supported": "1000",
        "transfer_limit": "1000",
        "hopper_limit": "100",
        "multigame": "01",
        "rtp": "95%"
    },
    "games": [
        {
            "id": 1,
            "name": "Matt's Lucky 7",
            "theoretical_rtp": 23,
            "real_rtp": 11,
            "bet_per_game": 55,
            "total_in": 125,
            "total_out": 432,
            "image": "assets/img/test-lucky-7.png"
        },
        {
            "id": 2,
            "name": "Magic Crystals",
            "theoretical_rtp": 13,
            "real_rtp": 5,
            "bet_per_game": 65,
            "total_in": 15,
            "total_out": 222,
            "image": "assets/img/test-magic-crystals.jpg"
        }
    ]
}
