{
    "settings": {
        "currency": {
            "value": "AUD",
            "options": ["AUD", "EUR", "USD"]
        },
        "main_coin": {
            "value": "1",
            "options": ["1", "5", "10"]
        },
        "tokenistaion": {
            "value": "1",
            "options": ["1", "5", "10"]
        },
        "la_win_limit": {
            "value": "1000",
            "type": "number"
        },
        "alarm_sound": {
            "value": "1",
            "options": ["1", "2"]
        },
        "machine_number": {
            "value": "345.222.786",
            "type": "string"
        },
        "validation_type": {
            "value": "1",
            "options": ["1"]
        }
    }
}
