{
    "settings": {
        "id": {
            "value": "HP/M3"
        },
        "channels": [
            {
                "channel": 1,
                "enabled": "on",
                "coin": 1,
                "currency": "Euro",
                "value": 1,
                "options": [1, 5, 10, 20, 50]
            }
        ]
    }
}
