[
    {"name": "jackpot", "title": "Jackpot"},
    {"name": "game", "title": "Game"},
    {"name": "machine", "title": "Machine"},
    {"name": "handpay", "title": "Handpay"},
    {"name": "cashless", "title": "Cashless"},
    {"name": "validation", "title": "Validation"}
]
