[
    {"name": "id", "value": "123456", "type": "string"},
    {"name": "game", "value": "XYZ", "type": "string"},
    {"name": "machine", "value": "AX-45-33-SW-34", "type": "string"},
    {"name": "param_1", "value": "3333", "type": "string"},
    {"name": "param_2", "value": "1000", "type": "select", "options":"10|100|1000|5000"},
    {"name": "param_3", "value": "B", "type": "select", "options":"A|B|C"},
    {"name": "check_1", "value": "", "type": "checkbox"}
]
