{
    "parameters": {
        "start_mode": 0,
        "remote_input": 0,
        "handpay_credit": 0,
        "bill_input": 0,
        "coin_input": 0,
        "win_output": 0,
        "pay_jackpot": 0,
        "pay_credit": 0,
        "partial": 0,
        "hopper_reminder": 0,
        "hoppper_dump": 0,
        "hopper_strategy": 0,
        "wincounter": 0,
        "bill_acceptor": 0,
        "bonusing": 0,
        "ticket_redemption": 0,
        "language": "en"
    },
    "language": "en"
}
