{
    "info": {
        "validation": "SYSYEM",
        "barcode": "INTERLEAVED 2 OF 5"
    },
    "setup": {
        "credit_types": "all",
        "change_ticket": "exchange",
        "layout": "default",
        "language": "machine",
        "date_format": "DD/MM/YYYY",
        "handapy": "off",
        "ticket": "on"
    }
}
