{
    "id": "SN/002/abc/123/2017",
    "enabled": "on",
    "channels": [
        {"no": 1, "value": "1", "currency": "$", "enabled": "on"},
        {"no": 2, "value": "5", "currency": "$", "enabled": "on"},
        {"no": 3, "value": "10", "currency": "$", "enabled": "on"},
        {"no": 4, "value": "20", "currency": "$", "enabled": "off"},
        {"no": 5, "value": "50", "currency": "$", "enabled": "on"},
        {"no": 6, "value": "100", "currency": "$", "enabled": "on"},
        {"no": 7, "value": "TICKET", "currency": "", "enabled": "off"}
    ],
    "directions": ["A", "B", "", "D"]
}
